<?xml version="1.0" encoding="utf-8"?>
<!-- Generator: Adobe Illustrator 16.0.0, SVG Export Plug-In . SVG Version: 6.00 Build 0)  -->
<!DOCTYPE svg PUBLIC "-//W3C//DTD SVG 1.1//EN" "http://www.w3.org/Graphics/SVG/1.1/DTD/svg11.dtd">
<svg version="1.1" id="Layer_1" xmlns="http://www.w3.org/2000/svg" xmlns:xlink="http://www.w3.org/1999/xlink" x="0px" y="0px"
	 width="13px" height="17px" viewBox="0 0 13 17" style="enable-background:new 0 0 13 17;" xml:space="preserve">
<style type="text/css">
<![CDATA[
	.st0{fill:#663af2;}
	.st1{clip-path:url(#SVGID_2_);fill:none;stroke:#663af2;stroke-linejoin:round;stroke-miterlimit:10;}
]]>
</style>
<g>
	<defs>
		<rect id="SVGID_1_" width="13" height="17"/>
	</defs>
	<clipPath id="SVGID_2_">
		<use xlink:href="#SVGID_1_"  style="overflow:visible;"/>
	</clipPath>
	<polyline class="st1" points="9.5,16.5 0.5,16.5 0.5,0.5 9.5,0.5 9.5,4.5 	"/>
	<rect x="6.5" y="4.5" class="st1" width="6" height="12"/>
</g>
<rect x="2" y="3" class="st0" width="1" height="2"/>
<rect x="2" y="7" class="st0" width="1" height="2"/>
<rect x="2" y="11" class="st0" width="1" height="2"/>
<rect x="4" y="3" class="st0" width="1" height="2"/>
<rect x="4" y="7" class="st0" width="1" height="2"/>
<rect x="4" y="11" class="st0" width="1" height="2"/>
<rect x="8" y="6" class="st0" width="1" height="2"/>
<rect x="10" y="6" class="st0" width="1" height="2"/>
<rect x="8" y="10" class="st0" width="1" height="2"/>
<rect x="10" y="10" class="st0" width="1" height="2"/>
<rect x="8" y="14" class="st0" width="3" height="2"/>
</svg>
