<?xml version="1.0" encoding="utf-8"?>
<!-- Generator: Adobe Illustrator 16.0.0, SVG Export Plug-In . SVG Version: 6.00 Build 0)  -->
<!DOCTYPE svg PUBLIC "-//W3C//DTD SVG 1.1//EN" "http://www.w3.org/Graphics/SVG/1.1/DTD/svg11.dtd">
<svg version="1.1" id="Layer_1" xmlns="http://www.w3.org/2000/svg" xmlns:xlink="http://www.w3.org/1999/xlink" x="0px" y="0px"
	 width="18.9px" height="15.2px" viewBox="0 0 18.9 15.2" style="enable-background:new 0 0 18.9 15.2;" xml:space="preserve">
<style type="text/css">
<![CDATA[
	.st0{clip-path:url(#SVGID_2_);fill:none;stroke:#663af2;stroke-linejoin:round;stroke-miterlimit:10;}
	.st1{clip-path:url(#SVGID_2_);fill:none;stroke:#663af2;stroke-linecap:round;stroke-linejoin:round;stroke-miterlimit:10;}
]]>
</style>
<g>
	<defs>
		<rect id="SVGID_1_" y="0" width="18.9" height="15.2"/>
	</defs>
	<clipPath id="SVGID_2_">
		<use xlink:href="#SVGID_1_"  style="overflow:visible;"/>
	</clipPath>
	<path class="st1" d="M13.4,4.3c0.1-0.8-0.1-1.5-0.6-2.2c-1.5-2.1-3.5-1.7-4.5-1C7.8,1.4,7.3,1.9,7,2.4c-0.4-0.5-0.8-1-1.3-1.3
		c-1-0.7-3-1.1-4.5,1C-1.9,6.2,7,12,7,12l0,0l0,0c0,0,0.4-0.3,1.1-0.8"/>
	<polygon class="st1" points="18.4,7.8 7.1,7.8 8.5,4.4 17.1,4.4 	"/>
	<path class="st0" d="M9.9,7.4c0,0.8-0.6,1.4-1.4,1.4c-0.8,0-1.4-0.6-1.4-1.4"/>
	<path class="st0" d="M12.8,7.4c0,0.8-0.6,1.4-1.4,1.4c-0.8,0-1.4-0.6-1.4-1.4"/>
	<path class="st0" d="M15.6,7.4c0,0.8-0.6,1.4-1.4,1.4c-0.8,0-1.4-0.6-1.4-1.4"/>
	<path class="st0" d="M18.4,7.4c0,0.8-0.6,1.4-1.4,1.4c-0.8,0-1.4-0.6-1.4-1.4"/>
	<polyline class="st0" points="17.4,8.8 17.4,14.7 8.1,14.7 8.1,8.8 	"/>
	<rect x="12.1" y="10.6" class="st1" width="2" height="4.1"/>
</g>
</svg>
