<?xml version="1.0" encoding="utf-8"?>
<!-- Generator: Adobe Illustrator 16.0.0, SVG Export Plug-In . SVG Version: 6.00 Build 0)  -->
<!DOCTYPE svg PUBLIC "-//W3C//DTD SVG 1.1//EN" "http://www.w3.org/Graphics/SVG/1.1/DTD/svg11.dtd">
<svg version="1.1" id="Capa_1" xmlns="http://www.w3.org/2000/svg" xmlns:xlink="http://www.w3.org/1999/xlink" x="0px" y="0px"
	 width="16.5px" height="17.8px" viewBox="249.7 355.4 16.5 17.8" style="enable-background:new 249.7 355.4 16.5 17.8;"
	 xml:space="preserve">
<style type="text/css">
<![CDATA[
	.st0{fill:#663af2;}
]]>
</style>
<g>
	<g>
		<path class="st0" d="M264.3,361.1h-3.2c-0.3,0-0.6,0.3-0.6,0.6c0,0.4,0.3,0.6,0.6,0.6h3.2c0.4,0,0.6,0.3,0.6,0.6v8.2
			c0,0.3-0.3,0.6-0.6,0.6h-12.7c-0.4,0-0.6-0.3-0.6-0.6V363c0-0.4,0.3-0.6,0.6-0.6h3.2c0.4,0,0.6-0.3,0.6-0.6c0-0.3-0.3-0.6-0.6-0.6
			h-3.2c-1.1,0-1.9,0.9-1.9,1.9v8.2c0,1.1,0.9,1.9,1.9,1.9h12.7c1.1,0,1.9-0.9,1.9-1.9V363C266.2,361.9,265.3,361.1,264.3,361.1z"/>
	</g>
</g>
<g>
	<g>
		<path class="st0" d="M261.6,358.7l-3.2-3.2c-0.2-0.2-0.6-0.2-0.9,0l-3.2,3.2c-0.2,0.3-0.2,0.7,0,0.9c0.2,0.2,0.6,0.2,0.9,0
			l2.1-2.1v10.5c0,0.4,0.3,0.6,0.6,0.6s0.6-0.3,0.6-0.6v-10.5l2.1,2.1c0.3,0.2,0.7,0.2,0.9,0C261.8,359.4,261.8,359,261.6,358.7z"/>
	</g>
</g>
</svg>
